index
…
df <- read_csv("https://www.dropbox.com/s/baqkwvsb0ah3ahh/covid_data.csv?dl=1") %>%
  mutate(across(starts_with("age"), ~ 100 * . / `All Ages`)) %>%
  mutate(carebeds = round(1000 * carebeds / `Adults`, 1)) %>%
  mutate(`age22-34` = `age22-24` + `age25-29` + `age30-34`) %>%
  pivot_longer(., cols = c(starts_with("2020-"), starts_with("2021-"), starts_with("2022-")),
               names_to = "week",
               values_to = "cases") %>%
  filter(week > "2020-03-13")

Here is the top of the data:

print(df, n = 3)

# A tibble: 746,790 x 39
  MSOA11CD  MSOA11NM LtlaCode LtlaName regionCode regionName TCITY15CD TCITY15NM
  <chr>     <chr>    <chr>    <chr>    <chr>      <chr>      <chr>     <chr>    
1 E02000002 Marks G~ E090000~ Barking~ E12000007  London     J01000055 London   
2 E02000002 Marks G~ E090000~ Barking~ E12000007  London     J01000055 London   
3 E02000002 Marks G~ E090000~ Barking~ E12000007  London     J01000055 London   
# ... with 746,787 more rows, and 31 more variables: PLACE <chr>, IMD <dbl>,
#   IMD.mx <dbl>, `All Ages` <dbl>, `age0-4` <dbl>, `age5-11` <dbl>,
#   `age12-17` <dbl>, `age18-21` <dbl>, `age22-24` <dbl>, `age25-29` <dbl>,
#   `age30-34` <dbl>, `age35-39` <dbl>, `age40-44` <dbl>, `age45-49` <dbl>,
#   `age50-54` <dbl>, `age55-59` <dbl>, `age60-64` <dbl>, `age65-69` <dbl>,
#   `age70-74` <dbl>, `age75-79` <dbl>, `age80-84` <dbl>, `age85-89` <dbl>,
#   `age90+` <dbl>, Adults <dbl>, carebeds <dbl>, AandE <dbl>, ...
…
(Code chunk 6b)

sub.regional.rates <- ranef(mlm2, whichel = "PLACE") %>%
  as_tibble() %>%
  select(-grpvar, -term) %>%
  rename(PLACE = grp, relative.rate = condval) %>%
  arrange(desc(PLACE))

sub.regional.rates %>%
  mutate(relative.rate = round(relative.rate, 3)) %>%
  select(PLACE, relative.rate) %>%
  print(n = 10)

# A tibble: 392 x 2
   PLACE         relative.rate
   <fct>                 <dbl>
 1 Doncaster#            1.38 
 2 Wakefield*            1.21 
 3 Barnsley#             1.14 
 4 Kirklees#             1.08 
 5 Bradford*             1.06 
 6 Doncaster*            1.04 
 7 Rotherham#            1.03 
 8 Leicester*            1.02 
 9 Huddersfield*         1.01 
10 Scunthorpe*           0.984
# ... with 382 more rows
…
