Thematic maps in R
…
Load the data

Let’s begin with the easy bit and load the data. This includes the variable No_schooling which is the percentage of the population without schooling per South African municipality in 2011.

Code

installed <- installed.packages()[,1]
if(!("tidyverse" %in% installed)) install.packages("tidyverse", dependencies = TRUE)
require(tidyverse)

education <- read_csv("https://github.com/profrichharris/profrichharris.github.io/raw/main/MandM/data/education.csv")
print(education, n = 3)

# A tibble: 234 × 8
  LocalMunicipality… LocalMunicipali… No_schooling Some_primary Complete_primary
  <chr>              <chr>                   <dbl>        <dbl>            <dbl>
1 EC101              Camdeboo                 13.4         34.5             8.94
2 EC102              Blue Crane Route         16.0         36.2             8.80
3 EC103              Ikwezi                   18.4         35.4             8.59
# … with 231 more rows, and 3 more variables: Some_secondary <dbl>,
#   Grade_12_Std_10 <dbl>, Higher <dbl>
…
municipal <- read_sf("https://github.com/profrichharris/profrichharris.github.io/raw/main/MandM/boundary%20files/MDB_Local_Municipal_Boundary_2011.geojson")

 If we now look at the top of the municipal object then we find it is of class sf, which is short for simple features. It has a vector geometry (it is of type multipolygon) and has its coordinate reference system (CRS) set as WGS 84. It also contains some attribute data, although not the schooling data we are looking to map.

Code

print(municipal, n = 1)

Simple feature collection with 234 features and 10 fields
Geometry type: MULTIPOLYGON
Dimension:     XY
Bounding box:  xmin: 16.45189 ymin: -34.83417 xmax: 32.94498 ymax: -22.12503
Geodetic CRS:  WGS 84
# A tibble: 234 × 11
  OBJECTID ProvinceCode ProvinceName LocalMunicipalityCode LocalMunicipalityName
     <int> <chr>        <chr>        <chr>                 <chr>                
1        1 EC           Eastern Cape BUF                   Buffalo City         
# … with 233 more rows, and 6 more variables: DistrictMunicipalityCode <chr>,
#   DistrictMunicipalityName <chr>, Year <int>, Shape__Area <dbl>,
#   Shape__Length <dbl>, geometry <MULTIPOLYGON [°]>

Here are just the attribute data

Code

st_drop_geometry(municipal) %>% print(n = 5)

# A tibble: 234 × 10
  OBJECTID ProvinceCode ProvinceName LocalMunicipalityCode LocalMunicipalityName
*    <int> <chr>        <chr>        <chr>                 <chr>                
1        1 EC           Eastern Cape BUF                   Buffalo City         
2        2 EC           Eastern Cape EC101                 Camdeboo             
3        3 EC           Eastern Cape EC102                 Blue Crane Route     
4        4 EC           Eastern Cape EC103                 Ikwezi               
5        5 EC           Eastern Cape EC104                 Makana               
# … with 229 more rows, and 5 more variables: DistrictMunicipalityCode <chr>,
#   DistrictMunicipalityName <chr>, Year <int>, Shape__Area <dbl>,
#   Shape__Length <dbl>
…
