Tidyverse
…
Now using tidyverse,

Code

df2 <- read_csv("covid.csv")
print(df2, n = 6)

# A tibble: 6,789 × 7
  MSOA11CD  regionName `2021-12-04` `2021-12-11` `2021-12-18` `2021-12-25`
  <chr>     <chr>             <dbl>        <dbl>        <dbl>        <dbl>
1 E02000002 London               25           48          148          176
2 E02000003 London               46           58          165          215
3 E02000004 London               24           44          100          141
4 E02000005 London               58           97          185          231
5 E02000007 London               38           94          153          205
6 E02000008 London               54          101          232          245
# … with 6,783 more rows, and 1 more variable: `All Ages` <dbl>
…
In tidyverse,

Code

df2 <- select(df2, regionName, `2021-12-04`, `All Ages`)
df2 <- rename(df2, cases = `2021-12-04`, population = `All Ages`)
print(df2, n = 6)

# A tibble: 6,789 × 3
  regionName cases population
  <chr>      <dbl>      <dbl>
1 London        25       7726
2 London        46      11246
3 London        24       6646
4 London        58      10540
5 London        38      10076
6 London        54      12777
# … with 6,783 more rows
…
The above will only work if you are using R version 4.1.0 or above. You can check which version you are running by using R.Version()$version.

Now using tidyverse and a different pipe, %>%,

Code

read_csv("covid.csv") %>%
  select(regionName, `2021-12-04`, `All Ages`) %>%
  rename(cases = `2021-12-04`, population = `All Ages`) %>%
  print(n = 6)

# A tibble: 6,789 × 3
  regionName cases population
  <chr>      <dbl>      <dbl>
1 London        25       7726
2 London        46      11246
3 London        24       6646
4 London        58      10540
5 London        38      10076
6 London        54      12777
# … with 6,783 more rows
…
