Creating harmonised pseudo-Output Areas for the 2001, 2011 & 2021 Censuses (England and Wales)
…
However, there are some cases that cannot be resolved in this way:

df |>
  filter(is.na(OAXXCD))

# A tibble: 1,146 × 9
   OA01CD    OA01CDO    OA11CD    CHG11 OA21CD    CHG21 LAD22CD   LAD22NM OAXXCD
   <chr>     <chr>      <chr>     <chr> <chr>     <chr> <chr>     <chr>   <chr> 
 1 E00000233 00ABGD0001 E00175112 S     E00185671 M     E09000002 Barkin… <NA>  
 2 E00000105 00ABFZ0005 E00165805 X     E00165805 U     E09000002 Barkin… <NA>  
 3 E00000729 00ACGA0007 E00000729 U     E00178723 X     E09000003 Barnet  <NA>  
 4 E00000731 00ACGA0009 E00000731 U     E00178723 X     E09000003 Barnet  <NA>  
 5 E00000731 00ACGA0009 E00000731 U     E00178889 X     E09000003 Barnet  <NA>  
 6 E00000731 00ACGA0009 E00000731 U     E00178893 X     E09000003 Barnet  <NA>  
 7 E00000733 00ACGA0011 E00000733 U     E00178724 X     E09000003 Barnet  <NA>  
 8 E00000733 00ACGA0011 E00000733 U     E00178891 X     E09000003 Barnet  <NA>  
 9 E00000733 00ACGA0011 E00000733 U     E00178892 X     E09000003 Barnet  <NA>  
10 E00000734 00ACGA0012 E00000734 U     E00178724 X     E09000003 Barnet  <NA>  
# … with 1,136 more rows
…
Stage 2

Some of the cases that have yet to be resolved arise because there is no connection between the 2001 Census codes and the 2011 Census ones.

df |>
  filter(is.na(CHG11))

# A tibble: 57 × 9
   OA01CD OA01CDO OA11CD    CHG11 OA21CD    CHG21 LAD22CD   LAD22NM       OAXXCD
   <chr>  <chr>   <chr>     <chr> <chr>     <chr> <chr>     <chr>         <chr> 
 1 <NA>   <NA>    E00165720 <NA>  E00165720 U     E08000012 Liverpool     <NA>  
 2 <NA>   <NA>    E00165673 <NA>  E00165673 U     E08000035 Leeds         <NA>  
 3 <NA>   <NA>    E00165738 <NA>  E00165738 U     E07000245 West Suffolk  <NA>  
 4 <NA>   <NA>    E00165746 <NA>  E00165746 U     E08000026 Coventry      <NA>  
 5 <NA>   <NA>    E00165758 <NA>  E00165758 U     E08000012 Liverpool     <NA>  
 6 <NA>   <NA>    E00165767 <NA>  E00165767 U     E06000003 Redcar and C… <NA>  
 7 <NA>   <NA>    E00165770 <NA>  E00165770 U     E06000003 Redcar and C… <NA>  
 8 <NA>   <NA>    E00165773 <NA>  E00188170 M     E06000003 Redcar and C… <NA>  
 9 <NA>   <NA>    E00165703 <NA>  E00165703 U     E06000007 Warrington    <NA>  
10 <NA>   <NA>    E00165705 <NA>  E00165705 U     E06000007 Warrington    <NA>  
# … with 47 more rows
…
left_join(df,
          data.frame(OA11CD = pts11$OA11CD, nearest = pts01$OA01CD[i]),
          by = "OA11CD")  |>
  mutate(OA01CD = ifelse(!is.na(nearest), nearest, OA01CD)) |>
  select(-nearest) -> df

Note that whilst all the cases where is.na(CHG11) have now been given a holding OA01CD, the OAXXCD has yet to be assigned. That will be included in the next stage.

df |>
  filter(is.na(CHG11)) |>
  select(OA01CD, CHG11, OAXXCD)

# A tibble: 57 × 3
   OA01CD    CHG11 OAXXCD
   <chr>     <chr> <chr> 
 1 E00033058 <NA>  <NA>  
 2 E00056821 <NA>  <NA>  
 3 E00152565 <NA>  <NA>  
 4 E00048351 <NA>  <NA>  
 5 E00032881 <NA>  <NA>  
 6 E00061137 <NA>  <NA>  
 7 E00061229 <NA>  <NA>  
 8 E00061071 <NA>  <NA>  
 9 E00063383 <NA>  <NA>  
10 E00063066 <NA>  <NA>  
# … with 47 more rows
…
  df |>
    mutate(OAXXCD = ifelse(OA01CD %in% found$OA01CD |
                           OA11CD %in% found$OA11CD |
                           OA21CD %in% found$OA21CD,
                           found$OA21CD[1],
                           OAXXCD)) -> df

}

The end result is that all of the Output Areas from each of the censuses are now assigned to one of 174363 unique pseudo-OAs, each with its own OAXXCD.

df

# A tibble: 190,743 × 9
   OA01CD    OA01CDO    OA11CD    CHG11 OA21CD    CHG21 LAD22CD   LAD22NM OAXXCD
   <chr>     <chr>      <chr>     <chr> <chr>     <chr> <chr>     <chr>   <chr> 
 1 E00000001 00AAFA0001 E00000001 U     E00000001 U     E09000001 City o… E0000…
 2 E00000051 00ABFX0015 E00000051 U     E00000051 U     E09000002 Barkin… E0000…
 3 E00000002 00AAFA0002 E00166756 M     E00166756 U     E09000001 City o… E0016…
 4 E00000003 00AAFA0003 E00000003 U     E00000003 U     E09000001 City o… E0000…
 5 E00000004 00AAFA0004 E00166758 M     E00190429 S     E09000001 City o… E0016…
 6 E00000004 00AAFA0004 E00166758 M     E00190433 S     E09000001 City o… E0016…
 7 E00000005 00AAFA0005 E00000005 U     E00000005 U     E09000001 City o… E0000…
 8 E00000006 00AAFA0006 E00166758 M     E00190429 S     E09000001 City o… E0016…
 9 E00000006 00AAFA0006 E00166758 M     E00190433 S     E09000001 City o… E0016…
10 E00000007 00AAFA0007 E00000007 U     E00000007 U     E09000001 City o… E0000…
# … with 190,733 more rows
…
geography

# A tibble: 190,743 × 9
   OAXXCD    OA21CD    LAD22CD   LAD22NM MSOA21CD MSOA21NM RGN21CD RGN21NM  Popn
   <chr>     <chr>     <chr>     <chr>   <chr>    <chr>    <chr>   <chr>   <dbl>
 1 X0000001E E00000001 E09000001 City o… E020000… City of… E12000… London    176
 2 X0000002E E00166756 E09000001 City o… E020000… City of… E12000… London    279
 3 X0000003E E00000003 E09000001 City o… E020000… City of… E12000… London    255
 4 X0000004E E00190429 E09000001 City o… E020000… City of… E12000… London    281
 5 X0000004E E00190433 E09000001 City o… E020000… City of… E12000… London    226
 6 X0000005E E00000005 E09000001 City o… E020000… City of… E12000… London    112
 7 X0000004E E00190429 E09000001 City o… E020000… City of… E12000… London    281
 8 X0000004E E00190433 E09000001 City o… E020000… City of… E12000… London    226
 9 X0000006E E00000007 E09000001 City o… E020000… City of… E12000… London    144
10 X0000002E E00166756 E09000001 City o… E020000… City of… E12000… London    279
# … with 190,733 more rows
…
geography |>
  write_csv("OAXXCD_to_MSOAXXNM_to_LADXXNM_RGNXXNM.csv")

geography

# A tibble: 174,363 × 8
# Groups:   OAXXCD [174,363]
   OAXXCD     Popn MSOA21CD  MSOA21NM       LAD22CD   LAD22NM    RGN21CD RGN21NM
   <chr>     <dbl> <chr>     <chr>          <chr>     <chr>      <chr>   <chr>  
 1 X0000001E   176 E02000001 City of London E09000001 City of L… E12000… London 
 2 X0000002E   279 E02000001 City of London E09000001 City of L… E12000… London 
 3 X0000003E   255 E02000001 City of London E09000001 City of L… E12000… London 
 4 X0000004E   507 E02000001 City of London E09000001 City of L… E12000… London 
 5 X0000005E   112 E02000001 City of London E09000001 City of L… E12000… London 
 6 X0000006E   144 E02000001 City of London E09000001 City of L… E12000… London 
 7 X0000007E   348 E02000001 City of London E09000001 City of L… E12000… London 
 8 X0000008E   175 E02000001 City of London E09000001 City of L… E12000… London 
 9 X0000009E   503 E02000001 City of London E09000001 City of L… E12000… London 
10 X0000010E   255 E02000001 City of London E09000001 City of L… E12000… London 
# … with 174,353 more rows
…
